Division,WeightClassKg,Place,Name,Team,BodyweightKg,Best3SquatKg,Best3BenchKg,Best3DeadliftKg,TotalKg,Equipment,Event,Sex,BirthDate
Girls,44.23,1,Madison Bradshaw,Tyler Chapel Hill,41.46,70.31,27.22,68.04,165.56,Single-ply,SBD,F,
Girls,44.23,DQ,Chloie Devillier,Jacksonville,44,115.67,52.16,,,Single-ply,SBD,F,
Girls,47.85,1,Niya Williams,Longview Pine Tree,44.91,102.06,54.43,95.25,251.74,Single-ply,SBD,F,
Girls,47.85,2,Nathaly Martinez,Jacksonville,46.99,97.52,36.29,104.33,238.14,Single-ply,SBD,F,
Girls,47.85,3,Emma Teter,Longview Pine Tree,44.54,81.65,45.36,90.72,217.72,Single-ply,SBD,F,
Girls,47.85,4,Candice Dyer,Lindale,45.72,88.45,38.56,90.72,217.72,Single-ply,SBD,F,
Girls,47.85,5,Litzy Martinez,Jacksonville,45.63,65.77,40.82,72.57,179.17,Single-ply,SBD,F,
Girls,47.85,DQ,Reyna Munoz,Jacksonville,47.81,,,,,Single-ply,SBD,F,
Girls,51.94,1,Tionna Lewis,Longview Pine Tree,51.26,120.2,58.97,127.01,306.17,Single-ply,SBD,F,
Girls,51.94,2,Hali Reyes,Henderson,51.44,113.4,49.9,102.06,265.35,Single-ply,SBD,F,
Girls,51.94,3,Trinity Hudgins,Whitehouse,49.8,99.79,56.7,104.33,260.82,Single-ply,SBD,F,
Girls,51.94,4,Halie Hanks,Whitehouse,50.71,92.99,45.36,102.06,240.4,Single-ply,SBD,F,
Girls,51.94,5,Whitleigh Hayes,Lindale,49.9,97.52,47.63,92.99,238.14,Single-ply,SBD,F,
Girls,51.94,6,Rachell Rodriguez,Whitehouse,49.26,81.65,47.63,86.18,215.46,Single-ply,SBD,F,
Girls,51.94,7,Abigayle Pannagle,Whitehouse,50.71,86.18,40.82,88.45,215.46,Single-ply,SBD,F,
Girls,51.94,DQ,Victoria Mayorga,Lindale,48.44,86.18,,,,Single-ply,SBD,F,
Girls,56.02,1,Brittany Chavez,Lindale,55.43,120.2,47.63,131.54,299.37,Single-ply,SBD,F,
Girls,56.02,2,Brittany Westbrook,Jacksonville,53.43,106.59,70.31,120.2,297.1,Single-ply,SBD,F,
Girls,56.02,3,Kira Jimmerson,Whitehouse,52.16,92.99,47.63,99.79,240.4,Single-ply,SBD,F,
Girls,56.02,4,Feiden Noelle,Whitehouse,54.79,72.57,34.02,88.45,195.04,Single-ply,SBD,F,
Girls,60.1,1,Chelynn Palmer,Lindale,59.87,113.4,49.9,111.13,274.42,Single-ply,SBD,F,
Girls,60.1,2,Dakota Cowan,Big Sandy Harmony,60.06,113.4,49.9,104.33,267.62,Single-ply,SBD,F,
Girls,60.1,3,Jasmine Mitchell,Lindale,58.6,111.13,45.36,99.79,256.28,Single-ply,SBD,F,
Girls,60.1,4,Laikyn Wilkerson,Big Sandy Harmony,59.24,99.79,43.09,108.86,251.74,Single-ply,SBD,F,
Girls,60.1,5,Brooklyn Hunter,Jacksonville,58.06,102.06,43.09,104.33,249.48,Single-ply,SBD,F,
Girls,60.1,6,Hannah Henson,Big Sandy Harmony,57.79,79.38,34.02,90.72,204.12,Single-ply,SBD,F,
Girls,67.36,1,Taitum Barry,Longview Pine Tree,61.6,131.54,58.97,142.88,333.39,Single-ply,SBD,F,
Girls,67.36,2,Kristen Gonzalez,Jacksonville,65.41,124.74,54.43,120.2,299.37,Single-ply,SBD,F,
Girls,67.36,3,Chadea Gipson,Longview Pine Tree,65.23,102.06,63.5,106.59,272.16,Single-ply,SBD,F,
Girls,67.36,4,Brekaelah McAllister,Henderson,62.78,111.13,43.09,111.13,265.35,Single-ply,SBD,F,
Girls,67.36,5,Riley Francis,Whitehouse,65.59,99.79,52.16,104.33,256.28,Single-ply,SBD,F,
Girls,67.36,6,Baleigh Allen,Whitehouse,65.77,99.79,56.7,95.25,251.74,Single-ply,SBD,F,
Girls,67.36,7,Gabbi Flores,Lindale,66.22,102.06,47.63,99.79,249.48,Single-ply,SBD,F,
Girls,67.36,8,Haley Wigington,Big Sandy Harmony,65.14,95.25,47.63,104.33,247.21,Single-ply,SBD,F,
Girls,67.36,9,Julia Fults,Tyler Chapel Hill,64.5,97.52,43.09,92.99,233.6,Single-ply,SBD,F,
Girls,75.07,1,Savannah Petty,Lindale,72.12,145.15,72.57,149.69,367.41,Single-ply,SBD,F,
Girls,75.07,2,Melissa Galindo,Longview Pine Tree,68.04,102.06,52.16,97.52,251.74,Single-ply,SBD,F,
Girls,75.07,3,Erin Lamas,Whitehouse,75.02,86.18,54.43,77.11,217.72,Single-ply,SBD,F,
Girls,82.33,1,Danielle Searcy,Jacksonville,80.47,140.61,54.43,131.54,326.59,Single-ply,SBD,F,
Girls,82.33,2,Meredith Fisher,Longview Pine Tree,75.93,127.01,61.23,111.13,299.37,Single-ply,SBD,F,
Girls,82.33,3,Emilia Ray,Longview Pine Tree,78.47,124.74,63.5,106.59,294.84,Single-ply,SBD,F,
Girls,82.33,4,Danielle Ison,Big Sandy Harmony,77.75,102.06,40.82,106.59,249.48,Single-ply,SBD,F,
Girls,82.33,5,Katelynn Garcia,Tyler Chapel Hill,75.75,99.79,45.36,102.06,247.21,Single-ply,SBD,F,
Girls,90.04,1,LaLauna Moffit,Lindale,85.46,117.93,63.5,133.81,315.25,Single-ply,SBD,F,
Girls,90.04,2,Daphne Davis,Lindale,85,124.74,54.43,120.2,299.37,Single-ply,SBD,F,
Girls,90.04,3,Camille Dworaczyk,Whitehouse,86,97.52,61.23,104.33,263.08,Single-ply,SBD,F,
Girls,90.04,4,Makenna Key,Big Sandy Harmony,85.91,86.18,31.75,86.18,204.12,Single-ply,SBD,F,
Girls,90.04,DQ,Ke'Shona Berry,Tyler Chapel Hill,84.73,,,,,Single-ply,SBD,F,
Girls,90.04,DQ,Reese Britton,Lindale,86.18,147.42,,,,Single-ply,SBD,F,
Girls,100.02,1,Zaniya Mumphrey,Lindale,94.35,156.49,61.23,140.61,358.34,Single-ply,SBD,F,
Girls,100.02,2,Amarelis Gonzalez,Jacksonville,95.8,163.29,56.7,136.08,356.07,Single-ply,SBD,F,
Girls,100.02,3,Cheyenne Etheridge,Longview Pine Tree,92.99,142.88,63.5,113.4,319.78,Single-ply,SBD,F,
Girls,100.02,4,Toniyah Tyler,Jacksonville,91.35,127.01,56.7,129.27,312.98,Single-ply,SBD,F,
Girls,117.71,1,Alyssa Justice,Jacksonville,105.96,104.33,45.36,99.79,249.48,Single-ply,SBD,F,
Girls,117.71+,1,Jalyce Dennis,Whitehouse,120.56,183.7,117.93,154.22,455.86,Single-ply,SBD,F,
Girls,117.71+,2,Praise Thomas,Whitehouse,127.82,147.42,79.38,142.88,369.68,Single-ply,SBD,F,
Girls,117.71+,3,Cristal Ponce,Jacksonville,118.3,81.65,43.09,90.72,215.46,Single-ply,SBD,F,
